<?xml version="1.0" encoding="UTF-8" standalone="no"?>
<svg width="20px" height="2px" viewBox="0 0 20 2" version="1.1" xmlns="http://www.w3.org/2000/svg" xmlns:xlink="http://www.w3.org/1999/xlink" xmlns:sketch="http://www.bohemiancoding.com/sketch/ns">
    <!-- Generator: Sketch 3.3 (11970) - http://www.bohemiancoding.com/sketch -->
    <title>Line Copy 3</title>
    <desc>Created with Sketch.</desc>
    <defs></defs>
    <g id="Dashboard" stroke="none" stroke-width="1" fill="none" fill-rule="evenodd" sketch:type="MSPage">
        <g id="pano-view-copy-2" sketch:type="MSArtboardGroup" transform="translate(-1130.000000, -565.000000)" stroke-linecap="round" stroke="#7B7B7B" stroke-width="2">
            <g id="Group" sketch:type="MSLayerGroup" transform="translate(1120.000000, 489.000000)">
                <path d="M11,77 L29,77" id="Line-Copy-3" sketch:type="MSShapeGroup"></path>
            </g>
        </g>
    </g>
</svg>