<?xml version="1.0" encoding="UTF-8" standalone="no"?>
<svg width="24px" height="24px" viewBox="0 0 24 24" version="1.1" xmlns="http://www.w3.org/2000/svg" xmlns:xlink="http://www.w3.org/1999/xlink" xmlns:sketch="http://www.bohemiancoding.com/sketch/ns">
    <!-- Generator: Sketch 3.3 (11970) - http://www.bohemiancoding.com/sketch -->
    <title>Group</title>
    <desc>Created with Sketch.</desc>
    <defs></defs>
    <g id="Dashboard" stroke="none" stroke-width="1" fill="none" fill-rule="evenodd" sketch:type="MSPage">
        <g id="pano-view" sketch:type="MSArtboardGroup" transform="translate(-1128.000000, -348.000000)" stroke-linecap="round" stroke="#7B7B7B" stroke-width="2">
            <g id="Group" sketch:type="MSLayerGroup" transform="translate(1129.000000, 349.000000)">
                <path d="M0.392857143,21.2142857 L7.07142857,21.2142857" id="Line-Copy-5" sketch:type="MSShapeGroup" transform="translate(3.928571, 21.214286) scale(-1, 1) translate(-3.928571, -21.214286) "></path>
                <path d="M0.785714286,21.2142857 L0.785714286,14.5357143" id="Line-Copy-8" sketch:type="MSShapeGroup" transform="translate(0.785714, 18.071429) scale(-1, 1) translate(-0.785714, -18.071429) "></path>
                <path d="M1.17857143,20.8214286 L7.86868756,14.1313125" id="Line" sketch:type="MSShapeGroup"></path>
                <path d="M1.17857143,0.785714286 L7.85714286,0.785714286" id="Line-Copy-5" sketch:type="MSShapeGroup" transform="translate(4.321429, 0.785714) scale(-1, -1) translate(-4.321429, -0.785714) "></path>
                <path d="M0.785714286,7.07142857 L0.785714286,0.392857143" id="Line-Copy-8" sketch:type="MSShapeGroup" transform="translate(0.785714, 3.928571) scale(-1, -1) translate(-0.785714, -3.928571) "></path>
                <path d="M1.17857143,8.25 L7.86868756,1.55988391" id="Line-Copy-11" sketch:type="MSShapeGroup" transform="translate(4.714286, 4.714286) scale(1, -1) translate(-4.714286, -4.714286) "></path>
                <path d="M14.5357143,21.2142857 L21.2142857,21.2142857" id="Line-Copy-5" sketch:type="MSShapeGroup"></path>
                <path d="M21.2142857,21.2142857 L21.2142857,14.5357143" id="Line-Copy-8" sketch:type="MSShapeGroup"></path>
                <path d="M13.75,20.8214286 L20.4401161,14.1313125" id="Line" sketch:type="MSShapeGroup" transform="translate(17.285714, 17.285714) scale(-1, 1) translate(-17.285714, -17.285714) "></path>
                <path d="M14.5357143,0.785714286 L21.2142857,0.785714286" id="Line-Copy-5" sketch:type="MSShapeGroup" transform="translate(17.678571, 0.785714) scale(1, -1) translate(-17.678571, -0.785714) "></path>
                <path d="M21.2142857,7.07142857 L21.2142857,0.392857143" id="Line-Copy-8" sketch:type="MSShapeGroup" transform="translate(21.214286, 3.928571) scale(1, -1) translate(-21.214286, -3.928571) "></path>
                <path d="M13.75,8.25 L20.4401161,1.55988391" id="Line-Copy-11" sketch:type="MSShapeGroup" transform="translate(17.285714, 4.714286) scale(-1, -1) translate(-17.285714, -4.714286) "></path>
            </g>
        </g>
    </g>
</svg>