<?xml version="1.0" encoding="UTF-8" standalone="no"?>
<svg width="62px" height="62px" viewBox="0 0 62 62" version="1.1" xmlns="http://www.w3.org/2000/svg" xmlns:xlink="http://www.w3.org/1999/xlink">
    <!-- Generator: Sketch 3.8.1 (29687) - http://www.bohemiancoding.com/sketch -->
    <title>Combined Shape</title>
    <desc>Created with Sketch.</desc>
    <defs></defs>
    <g id="Dashboard" stroke="none" stroke-width="1" fill="none" fill-rule="evenodd">
        <g id="pano-view-copy-3" transform="translate(-803.000000, -457.000000)" stroke-width="2" stroke="#5ACC3A">
            <g id="справка">
                <path d="M807.644553,517.068083 C804.480029,518.060141 803.118351,516.452431 804.597183,513.489139 L831.178924,460.224481 C832.660432,457.255826 835.065106,457.261188 836.543938,460.224481 L863.12568,513.489139 C864.607187,516.457793 863.247853,518.061714 860.078309,517.068083 L835.764174,509.445754 C834.713318,509.116318 833.006933,509.117136 831.958688,509.445754 L807.644553,517.068083 Z" id="Combined-Shape"></path>
            </g>
        </g>
    </g>
</svg>